…
r<sup>2 log(β</sup>0∗β^1)

``` r
boot_sample = function(df) {
  sample_frac(df, replace = TRUE)
}

boot_sample(weather_df)
```

    ## # A tibble: 365 x 6
    ##    name           id          date        prcp  tmax  tmin
    ##    <chr>          <chr>       <date>     <dbl> <dbl> <dbl>
    ##  1 CentralPark_NY USW00094728 2017-12-09   117   1.7  -1  
    ##  2 CentralPark_NY USW00094728 2017-01-28     0   3.9   1.1
    ##  3 CentralPark_NY USW00094728 2017-05-24    10  20.6  13.3
    ##  4 CentralPark_NY USW00094728 2017-08-15   114  23.3  20  
    ##  5 CentralPark_NY USW00094728 2017-06-21     0  28.3  21.7
    ##  6 CentralPark_NY USW00094728 2017-08-05    76  25.6  20.6
    ##  7 CentralPark_NY USW00094728 2017-08-03     0  30.6  20  
    ##  8 CentralPark_NY USW00094728 2017-09-20     0  26.1  21.7
    ##  9 CentralPark_NY USW00094728 2017-07-09     0  27.2  19.4
    ## 10 CentralPark_NY USW00094728 2017-04-13     0  18.3   8.9
    ## # ... with 355 more rows
…
